<?xml version="1.0" encoding="UTF-8" standalone="no"?>
<svg
   xmlns:dc="http://purl.org/dc/elements/1.1/"
   xmlns:cc="http://creativecommons.org/ns#"
   xmlns:rdf="http://www.w3.org/1999/02/22-rdf-syntax-ns#"
   xmlns:svg="http://www.w3.org/2000/svg"
   xmlns="http://www.w3.org/2000/svg"
   xmlns:sodipodi="http://sodipodi.sourceforge.net/DTD/sodipodi-0.dtd"
   xmlns:inkscape="http://www.inkscape.org/namespaces/inkscape"
   width="2250"
   height="2250"
   viewBox="0 0 595.31249 595.31251"
   version="1.1"
   id="svg356"
   inkscape:version="1.0.2 (e86c870879, 2021-01-15)"
   sodipodi:docname="jnktn_logo_arrow.svg"
   inkscape:export-filename="/home/alex/Jnktn/jnktn_logo_arrow.png"
   inkscape:export-xdpi="96"
   inkscape:export-ydpi="96">
  <defs
     id="defs350" />
  <sodipodi:namedview
     id="base"
     pagecolor="#ffffff"
     bordercolor="#666666"
     borderopacity="1.0"
     inkscape:pageopacity="0.0"
     inkscape:pageshadow="2"
     inkscape:zoom="0.24748737"
     inkscape:cx="2083.22"
     inkscape:cy="1383.8604"
     inkscape:document-units="px"
     inkscape:current-layer="layer1"
     inkscape:document-rotation="0"
     showgrid="false"
     units="px"
     inkscape:window-width="1458"
     inkscape:window-height="1199"
     inkscape:window-x="243"
     inkscape:window-y="149"
     inkscape:window-maximized="0" />
  <metadata
     id="metadata353">
    <rdf:RDF>
      <cc:Work
         rdf:about="">
        <dc:format>image/svg+xml</dc:format>
        <dc:type
           rdf:resource="http://purl.org/dc/dcmitype/StillImage" />
        <dc:title />
      </cc:Work>
    </rdf:RDF>
  </metadata>
  <g
     inkscape:label="Layer 1"
     inkscape:groupmode="layer"
     id="layer1">
    <rect
       style="fill:#e5cf18;fill-opacity:1;stroke-width:0.319575"
       id="rect358"
       width="39.6875"
       height="119.0625"
       x="489.47916"
       y="238.125" />
    <rect
       style="fill:#e5cf18;fill-opacity:1;stroke-width:0.563677"
       id="rect358-3"
       width="39.6875"
       height="370.41666"
       x="330.72916"
       y="112.44791" />
    <rect
       style="fill:#e5cf18;fill-opacity:1;stroke-width:0.369013"
       id="rect358-6"
       width="39.6875"
       height="158.75"
       x="436.5625"
       y="218.28125" />
    <rect
       style="fill:#e5cf18;fill-opacity:1;stroke-width:0.451947"
       id="rect358-7"
       width="39.6875"
       height="238.125"
       x="383.64584"
       y="178.59375" />
    <rect
       style="fill:#e5cf18;fill-opacity:1;stroke-width:0.319575"
       id="rect358-9"
       width="39.6875"
       height="119.0625"
       x="119.0625"
       y="238.125" />
    <rect
       style="fill:#e5cf18;fill-opacity:1;stroke-width:0.260932"
       id="rect358-1"
       width="39.6875"
       height="79.375"
       x="171.97917"
       y="257.96875" />
    <rect
       style="fill:#e5cf18;fill-opacity:1;stroke-width:0.260932"
       id="rect358-2"
       width="39.6875"
       height="79.375"
       x="13.229167"
       y="257.96875" />
    <rect
       style="fill:#e5cf18;fill-opacity:1;stroke-width:0.260932"
       id="rect358-70"
       width="39.6875"
       height="79.375"
       x="66.145836"
       y="257.96875" />
    <rect
       style="fill:#e5cf18;fill-opacity:1;stroke-width:0.260932"
       id="rect358-1-9"
       width="39.6875"
       height="79.375"
       x="224.89583"
       y="257.96875" />
    <rect
       style="fill:#e5cf18;fill-opacity:1;stroke-width:0.260932"
       id="rect358-1-9-3"
       width="39.6875"
       height="79.375"
       x="277.8125"
       y="257.96875" />
    <rect
       style="fill:#e5cf18;fill-opacity:1;stroke-width:0.260932"
       id="rect358-1-9-3-6"
       width="39.6875"
       height="79.375"
       x="542.39581"
       y="257.96875" />
  </g>
</svg>
