<?xml version="1.0" encoding="UTF-8" standalone="no"?>
<svg
   xmlns:dc="http://purl.org/dc/elements/1.1/"
   xmlns:cc="http://creativecommons.org/ns#"
   xmlns:rdf="http://www.w3.org/1999/02/22-rdf-syntax-ns#"
   xmlns:svg="http://www.w3.org/2000/svg"
   xmlns="http://www.w3.org/2000/svg"
   xmlns:sodipodi="http://sodipodi.sourceforge.net/DTD/sodipodi-0.dtd"
   xmlns:inkscape="http://www.inkscape.org/namespaces/inkscape"
   width="2899.9998"
   height="2899.9998"
   viewBox="0 0 767.29159 767.29161"
   version="1.1"
   id="svg356"
   inkscape:version="1.0.2 (e86c870879, 2021-01-15)"
   sodipodi:docname="jnktn_logo_yellowonblack.svg"
   inkscape:export-filename="/home/alex/Jnktn/jnktn_logo_yellowonblack.png"
   inkscape:export-xdpi="96"
   inkscape:export-ydpi="96">
  <defs
     id="defs350">
    <rect
       x="52.229073"
       y="400.87866"
       width="531.81921"
       height="189.43845"
       id="rect130" />
    <rect
       x="52.204964"
       y="440.03711"
       width="484.73267"
       height="148.11462"
       id="rect124" />
    <rect
       x="59.946838"
       y="456.61447"
       width="225.17506"
       height="98.729141"
       id="rect118" />
    <rect
       x="28.686092"
       y="445.18353"
       width="569.14606"
       height="158.35275"
       id="rect112" />
  </defs>
  <sodipodi:namedview
     id="base"
     pagecolor="#ffffff"
     bordercolor="#666666"
     borderopacity="1.0"
     inkscape:pageopacity="0"
     inkscape:pageshadow="2"
     inkscape:zoom="0.24748737"
     inkscape:cx="975.09654"
     inkscape:cy="1383.8603"
     inkscape:document-units="px"
     inkscape:current-layer="layer1"
     inkscape:document-rotation="0"
     showgrid="false"
     units="px"
     inkscape:window-width="2560"
     inkscape:window-height="1376"
     inkscape:window-x="0"
     inkscape:window-y="27"
     inkscape:window-maximized="1"
     inkscape:pagecheckerboard="true"
     showguides="true"
     inkscape:guide-bbox="true"
     fit-margin-top="0"
     fit-margin-left="0"
     fit-margin-right="0"
     fit-margin-bottom="0" />
  <metadata
     id="metadata353">
    <rdf:RDF>
      <cc:Work
         rdf:about="">
        <dc:format>image/svg+xml</dc:format>
        <dc:type
           rdf:resource="http://purl.org/dc/dcmitype/StillImage" />
        <dc:title></dc:title>
      </cc:Work>
    </rdf:RDF>
  </metadata>
  <g
     inkscape:groupmode="layer"
     id="layer2"
     inkscape:label="Background"
     style="display:inline"
     transform="translate(-1.6212463e-5,-1.6212463e-5)"
     sodipodi:insensitive="true">
    <rect
       style="fill:#000000;fill-opacity:0.996078;stroke:none;stroke-width:26.4583;stroke-miterlimit:4;stroke-dasharray:none;stroke-opacity:1"
       id="rect992"
       width="740.83331"
       height="740.83331"
       x="13.229166"
       y="13.229166"
       ry="74.083336" />
  </g>
  <g
     inkscape:label="Foreground"
     inkscape:groupmode="layer"
     id="layer1"
     style="display:inline"
     transform="translate(-1.6212463e-5,-1.6212463e-5)">
    <rect
       style="fill:#e5cf18;fill-opacity:0.99607843;stroke-width:0.319468"
       id="rect358"
       width="39.661034"
       height="119.0625"
       x="575.46869"
       y="224.89584" />
    <rect
       style="fill:#e5cf18;fill-opacity:0.99607843;stroke-width:0.563677"
       id="rect358-3"
       width="39.687492"
       height="370.41666"
       x="416.71863"
       y="99.21875" />
    <rect
       style="fill:#e5cf18;fill-opacity:0.99607843;stroke-width:0.369013"
       id="rect358-6"
       width="39.687492"
       height="158.75"
       x="522.55194"
       y="205.05209" />
    <rect
       style="fill:#e5cf18;fill-opacity:0.99607843;stroke-width:0.451947"
       id="rect358-7"
       width="39.687492"
       height="238.125"
       x="469.63528"
       y="165.36462" />
    <rect
       style="fill:#e5cf18;fill-opacity:0.99607843;stroke-width:0.319575"
       id="rect358-9"
       width="39.687492"
       height="119.0625"
       x="205.05208"
       y="224.89584" />
    <rect
       style="fill:#e5cf18;fill-opacity:0.99607843;stroke-width:0.260932"
       id="rect358-1"
       width="39.687492"
       height="79.375"
       x="257.96875"
       y="244.73959" />
    <rect
       style="fill:#e5cf18;fill-opacity:0.99607843;stroke-width:0.260932"
       id="rect358-2"
       width="39.687492"
       height="79.375"
       x="99.218742"
       y="244.73959" />
    <rect
       style="fill:#e5cf18;fill-opacity:0.99607843;stroke-width:0.260932"
       id="rect358-70"
       width="39.687492"
       height="79.375"
       x="152.13539"
       y="244.73959" />
    <rect
       style="fill:#e5cf18;fill-opacity:0.99607843;stroke-width:0.260932"
       id="rect358-1-9"
       width="39.687492"
       height="79.375"
       x="310.88531"
       y="244.73959" />
    <rect
       style="fill:#e5cf18;fill-opacity:0.99607843;stroke-width:0.260932"
       id="rect358-1-9-3"
       width="39.687492"
       height="79.375"
       x="363.80197"
       y="244.73959" />
    <rect
       style="fill:#e5cf18;fill-opacity:0.99607843;stroke-width:0.260932"
       id="rect358-1-9-3-6"
       width="39.687492"
       height="79.375"
       x="628.38538"
       y="244.73959" />
    <text
       xml:space="preserve"
       id="text110"
       style="font-style:normal;font-weight:normal;font-size:10.5833px;line-height:1.25;font-family:sans-serif;white-space:pre;shape-inside:url(#rect112);fill:#000000;fill-opacity:1;stroke:none;" />
    <text
       xml:space="preserve"
       id="text116"
       style="font-style:normal;font-weight:normal;font-size:10.5833px;line-height:1.25;font-family:sans-serif;white-space:pre;shape-inside:url(#rect118);fill:#000000;fill-opacity:1;stroke:none;" />
    <text
       xml:space="preserve"
       id="text122"
       style="font-style:normal;font-weight:normal;font-size:10.5833px;line-height:1.25;font-family:sans-serif;white-space:pre;shape-inside:url(#rect124);fill:#000000;fill-opacity:1;stroke:none;" />
    <text
       xml:space="preserve"
       id="text128"
       style="font-style:normal;font-weight:normal;font-size:10.5833px;line-height:1.25;font-family:sans-serif;white-space:pre;shape-inside:url(#rect130);fill:#000000;fill-opacity:1;stroke:none;" />
    <text
       xml:space="preserve"
       style="font-style:normal;font-variant:normal;font-weight:normal;font-stretch:normal;font-size:141.111px;line-height:1.25;font-family:Transport;-inkscape-font-specification:Transport;fill:#e5cf18;fill-opacity:0.99607843;stroke:none;stroke-width:0.264583;"
       x="74.558762"
       y="681.44049"
       id="text136"><tspan
         sodipodi:role="line"
         id="tspan134"
         x="74.558762"
         y="681.44049"
         style="font-style:normal;font-variant:normal;font-weight:normal;font-stretch:normal;font-size:158.75px;font-family:Transport;-inkscape-font-specification:Transport;fill:#e5cf18;fill-opacity:0.99607843;stroke-width:0.264583;">Jnktn;.tv</tspan></text>
    <text
       xml:space="preserve"
       style="font-style:normal;font-weight:normal;font-size:10.5833px;line-height:1.25;font-family:sans-serif;fill:#000000;fill-opacity:1;stroke:none;stroke-width:0.264583"
       x="16.643173"
       y="227.12622"
       id="text140"><tspan
         sodipodi:role="line"
         id="tspan138"
         x="16.643173"
         y="227.12622"
         style="stroke-width:0.264583" /></text>
  </g>
</svg>
